ACTION:
placepeg1()
CONTEXT:
clearB1() -separatorplacedSp() -horizontalB1() -pegplacedB1FbHb1()
OUTCOMES:
1 pegplacedB1FbHb1()
0 <noise>

ACTION:
placepeg1()
CONTEXT:
clearB1() -separatorplacedSp() horizontalB1() -pegplacedB1FbHb1()
OUTCOMES:
0.5 pegplacedB1FbHb1() -horizontalB1()
0.5 -clearB1()
0 <noise>

ACTION:
placepeg2()
CONTEXT:
clearB2() freeFbHb2() -separatorplacedSp() -horizontalB2() -pegplacedB2FbHb2()
OUTCOMES:
1 pegplacedB2FbHb2() -freeFbHb2()
0 <noise>

ACTION:
placepeg3()
CONTEXT:
clearB3() freeFbHb3() -horizontalB3() -pegplacedB3FbHb3()
OUTCOMES:
1 pegplacedB3FbHb3() -freeFbHb3()
0 <noise>

ACTION:
placepeg4()
CONTEXT:
clearB4() freeFbHb4() -horizontalB4() -pegplacedB4FbHb4()
OUTCOMES:
1 pegplacedB4FbHb4() -freeFbHb4()
0 <noise>

ACTION:
placeshaft()
CONTEXT:
clearSh() freeFbHsh() -shaftplacedSh()
OUTCOMES:
1 shaftplacedSh() -freeFbHsh()
0 <noise>

ACTION:
placeseparator()
CONTEXT:
clearSp() pegplacedB1FbHb1() pegplacedB2FbHb2() -separatorplacedSp()
OUTCOMES:
1 separatorplacedSp() -clearB1() -clearB2()
0 <noise>

ACTION:
placependulum()
CONTEXT:
shaftplacedSh() clearPn() -pendulumplacedPn()
OUTCOMES:
1 pendulumplacedPn() -clearSh()
0 <noise>

ACTION:
screwpendulumhead()
CONTEXT:
pendulumplacedPn() clearPh() -pendulumheadscrewedPh()
OUTCOMES:
1 pendulumheadscrewedPh() -clearPn()
0 <noise>

ACTION:
placefaceplatefront()
CONTEXT:
separatorplacedSp() pendulumheadscrewedPh() clearFf() pegplacedB1FbHb1() pegplacedB2FbHb2() pegplacedB3FbHb3() pegplacedB4FbHb4() -faceplatefrontplacedFf() clearB3() clearB4() clearSp()
OUTCOMES:
1 faceplatefrontplacedFf() -clearB3() -clearB4() -clearSp()
0 <noise>

ACTION:
repositionpeg1()
CONTEXT:
horizontalB1() clearB1()
OUTCOMES:
1 -horizontalB1()
0 <noise>

ACTION:
repositionpeg2()
CONTEXT:
horizontalB2() clearB2()
OUTCOMES:
1 -horizontalB2()
0 <noise>

ACTION:
repositionpeg3()
CONTEXT:
horizontalB3() clearB3()
OUTCOMES:
1 -horizontalB3()
0 <noise>

ACTION:
repositionpeg4()
CONTEXT:
horizontalB4() clearB4()
OUTCOMES:
1 -horizontalB4()
0 <noise>
